Unit E-wk5 Statistics: Model checking
…
glance_gestation <- broom::glance(gestation_model)
glance_gestation

## # A tibble: 1 x 12
##   r.squared adj.r.squared sigma statistic p.value    df logLik   AIC   BIC
##       <dbl>         <dbl> <dbl>     <dbl>   <dbl> <dbl>  <dbl> <dbl> <dbl>
## 1     0.424         0.414  711.      41.2 3.13e-8     1  -462.  930.  937.
## # ... with 3 more variables: deviance <dbl>, df.residual <int>, nobs <int>

To find the predicted values and the residuals for each species adult body weight for their gestation period, we can use broom::augment()

augment_gestation <- broom::augment(gestation_model, interval="confidence")
augment_gestation

## # A tibble: 58 x 11
##    .rownames body_wt gestation .fitted .lower  .upper .resid .std.resid   .hat
##    <chr>       <dbl>     <dbl>   <dbl>  <dbl>   <dbl>  <dbl>      <dbl>  <dbl>
##  1 1         6.65e+3       645   2282.  1609. 2955.    4372.      6.97  0.223 
##  2 2         1.00e+0        42   -202.  -429.   25.3    203.      0.289 0.0254
##  3 3         3.38e+0        60   -128.  -343.   87.1    131.      0.187 0.0228
##  4 4         9.20e-1        25   -272.  -512.  -31.7    273.      0.389 0.0285
##  5 5         2.55e+3       624   2195.  1549. 2842.     352.      0.555 0.206 
##  6 6         1.06e+1       180    367.   173.  560.    -356.     -0.505 0.0184
##  7 7         2.30e-2        35   -231.  -463.    1.67   231.      0.329 0.0266
##  8 8         1.60e+2       392   1240.   868. 1611.   -1080.     -1.57  0.0680
##  9 9         3.30e+0        63   -115.  -329.   97.6    119.      0.169 0.0224
## 10 10        5.22e+1       230    572.   354.  791.    -520.     -0.740 0.0235
## # ... with 48 more rows, and 2 more variables: .sigma <dbl>, .cooksd <dbl>
…
